Nomad2018 Predicting Transparent Conductors
…
Training_Data %>% 
  filter( id != "NA", spacegroup != "NA", number_of_total_atoms != "NA", percent_atom_al != "NA", percent_atom_ga != "NA", percent_atom_in != "NA", lattice_vector_1_ang != "NA", lattice_vector_2_ang != "NA", lattice_vector_3_ang != "NA", lattice_angle_alpha_degree != "NA", lattice_angle_beta_degree != "NA", lattice_angle_gamma_degree != "NA", formation_energy_ev_natom != "NA", bandgap_energy_ev != "NA") %>%
  select( id, spacegroup, number_of_total_atoms, percent_atom_al, percent_atom_ga, percent_atom_in   , lattice_vector_1_ang, lattice_vector_2_ang, lattice_vector_3_ang, lattice_angle_alpha_degree, lattice_angle_beta_degree, lattice_angle_gamma_degree, formation_energy_ev_natom,  bandgap_energy_ev ) %>% 
  group_by(id, spacegroup, number_of_total_atoms, percent_atom_al, percent_atom_ga, percent_atom_in   , lattice_vector_1_ang, lattice_vector_2_ang, lattice_vector_3_ang, lattice_angle_alpha_degree, lattice_angle_beta_degree, lattice_angle_gamma_degree, formation_energy_ev_natom,  bandgap_energy_ev) 

## # A tibble: 2,400 x 14
## # Groups:   id, spacegroup, number_of_total_atoms, percent_atom_al,
## #   percent_atom_ga, percent_atom_in, lattice_vector_1_ang,
## #   lattice_vector_2_ang, lattice_vector_3_ang,
## #   lattice_angle_alpha_degree, lattice_angle_beta_degree,
## #   lattice_angle_gamma_degree, formation_energy_ev_natom,
## #   bandgap_energy_ev [2,400]
##       id spacegroup number_of_total_atoms percent_atom_al percent_atom_ga
##    <dbl>      <dbl>                 <dbl>           <dbl>           <dbl>
##  1     1         33                    80          0.6250          0.3750
##  2     2        194                    80          0.6250          0.3750
##  3     3        227                    40          0.8125          0.1875
##  4     4        167                    30          0.7500          0.0000
##  5     5        194                    80          0.0000          0.6250
##  6     6        227                    40          0.5625          0.4375
##  7     7        206                    80          0.0312          0.0938
##  8     8         12                    20          0.5000          0.0000
##  9     9        206                    80          0.5312          0.2188
## 10    10        194                    80          0.4062          0.5938
## # ... with 2,390 more rows, and 9 more variables: percent_atom_in <dbl>,
## #   lattice_vector_1_ang <dbl>, lattice_vector_2_ang <dbl>,
## #   lattice_vector_3_ang <dbl>, lattice_angle_alpha_degree <dbl>,
## #   lattice_angle_beta_degree <dbl>, lattice_angle_gamma_degree <dbl>,
## #   formation_energy_ev_natom <dbl>, bandgap_energy_ev <dbl>
…
